t,mehrotra,qpoases
10,40770458658224306e-21,0.013510477152518248
20,6600149910581587e-20,0.012681514820022104
30,821078133857773e-19,0.027225098873265463
40,8056721294050541e-20,0.03973691492092785
50,8365698787254199e-20,0.053282280957300886
60,8402555617223555e-20,0.08691765327959702
70,8423728831903061e-20,0.10477872924682761
80,8440401104583635e-20,0.12881216571976678
90,8582596501364801e-20,0.1441647432565778
100,8591060075698623e-20,0.1716983084783395
