m,mehrotra,qpoases,cputime
2,21.044161338916634,0.0036809205141902814,242741452710.15237
3,0.05400467807376594,0.014379225457525437,0.014239613827490446
4,0.027552869785142493,0.015403689397395667,0.015275351152770168
5,0.002260665073653644,0.0027603249869797837,0.0025095366986730475
6,0.32229705514667023,0.08056922701597392,0.08044388897595678
7,0.37672813467464483,0.1513764885149394,0.15102294378865513
8,0.41700224730483915,0.3129373882445009,0.3126234762389753
9,0.42765578276162963,0.34803426528734777,0.34755178490899974
10,0.41434334880426,0.49978856139008626,0.49910649208568614
11,0.4816936294566473,0.7307407974591007,0.729561971756098
