n,mehrotra,qpoases,cputime
4,0.932622,0.23951,0.1630783
5,0.634356,0.547979,0.5428791
6,1.654023,1.024722,1.017094
7,2.124455,1.203719,1.194954
8,3.099022,2.362231,2.353191
9,4.80552,7.745574,7.735014
10,4.528253,6.752202,6.739855
11,5.637147,8.104709,8.090973
12,6.397075,10.2134,10.19597
13,7.655791,13.99686,13.97014
14,10.26405,20.87662,20.84994
15,11.84061,32.05994,32.02415
16,11.56721,27.52656,27.48799
17,12.81053,63.73502,63.70497
18,14.36699,35.87704,35.84886
19,16.17531,69.95603,69.92507
20,18.12822,61.92826,61.87963
