iter,u1,u2,u3,u4,u5
1,0,0,0,0,0
2,-0.0944393,-0.05598853,0.03972614,0.03912613,0.03909516
3,0.1086217,0.1259463,0.0293904,-0.009916216,-0.1084467
4,0.1575546,0.1896134,0.008351274,-0.09269244,-0.0248411
5,0.07510018,0.008318378,0.08413684,0.05429693,-0.09369927
6,0.2952984,0.02678958,-0.01269725,-0.0429113,-0.2678061
7,0.1479343,-0.01999873,-0.01451636,-0.04730923,-0.05640401
8,0.02943814,0.01452585,-0.09799073,-0.06896581,-0.01545169
9,0.02359163,-0.009622572,-0.01263226,-0.02373178,-0.07346283
10,0.1114518,0.03606988,-0.03334378,-0.05047429,-0.1510078
11,0.1355609,-0.1032302,-0.04327296,-0.04660818,-0.2318129
12,0.07146903,-0.02030226,-0.1138413,-0.1073946,-0.1369856
13,0.1079458,-0.03484527,-0.08737348,-0.01290939,-0.03741664
14,0.08937491,0.03098708,0.0397212,0.05771129,-0.007829139
15,0.0005258755,-0.02111243,0.02168978,0.01909782,0.06884081
16,0.1534799,0.08791917,0.1362738,-0.02859178,-0.2107411
17,0.02559669,0.04559076,0.2871506,0.0564699,-0.1446568
18,0.1609893,0.01023901,0.113946,0.08537773,0.0185515
19,0.04081774,0.1423518,0.1134875,-0.003946563,0.0877491
20,-0.002135734,0.1840853,-0.0102362,0.005649506,-0.02902757
21,-0.02691088,-0.01321895,-0.04186257,-0.1219602,0.003229122
22,-0.06591561,-0.06221226,-0.08865,0.1048152,0.09073901
23,-0.1458742,-0.1194294,0.00861771,0.003254676,0.04582402
24,-0.02705707,-0.2107686,-0.1521328,-0.1727408,-0.1053198
25,0.07959953,-0.2070772,-0.2143144,-0.1554393,-0.07525837
26,-0.05912311,-0.2020347,-0.1091433,-0.08106086,0.02192531
27,-0.1759583,-0.1593234,-0.07577831,0.08528779,0.3447516
28,-0.1567708,0.08635292,0.01630808,0.07538931,0.2973985
29,-0.08674556,0.1014071,0.007797382,0.02047441,-0.02736751
30,-0.03586032,-0.005801721,0.02674168,0.1212526,-0.1803052
31,-0.03927984,-0.1488341,-0.1476601,0.009489649,-0.04073396
32,-0.1168915,-0.1909726,-0.05707225,0.01267089,0.1558189
33,-0.09014585,-0.08034487,0.0835322,0.1070747,0.01495594
34,-0.06768794,0.1026822,0.1791148,-0.01227865,0.05369504
35,-0.1113718,0.1337558,0.1168744,0.1388014,0.08550374
36,-0.113798,0.1764584,0.0847767,0.01777499,0.1889029
37,-0.07121977,0.2047547,0.1560922,0.09393893,-0.002951266
38,0.06805454,0.04958508,0.03715741,0.09715585,-0.01852846
39,0.2460093,-0.005617489,0.01659603,-0.03958097,-0.07538656
40,0.03075082,-0.07362814,-0.007164321,-0.01871755,-0.09528173
41,0.1102706,-0.1133421,-0.1213797,-0.1775345,-0.3139017
42,0.2568134,0.09493314,-0.02913173,-0.1710473,-0.2924494
43,0.2403318,0.07262341,0.00716298,-0.04233119,-0.1900504
44,0.2511687,0.1334818,-0.06868069,-0.01570715,-0.1460012
45,0.1547192,0.2300339,0.01508745,-0.05474798,0.03532586
46,0.004510312,-0.06631325,-0.07324576,-0.03303633,0.1134187
47,-0.1728457,-0.05949451,0.03315616,0.03532568,0.002251164
48,-0.0885108,0.04204572,0.01900584,-0.1095739,-0.1054813
49,-0.001628911,0.03061565,-0.09340785,0.00332541,-0.0332482
50,-0.03304884,0.0009069501,0.03296034,0.06020229,0.083727
51,0.04787326,0.05301914,0.08475787,0.01839931,0.04029895
52,-0.07778466,-0.02723099,0.2265649,0.109999,0.2606005
53,-0.03825908,0.03689944,0.08380593,0.08054752,0.06797211
54,-0.08079009,-0.05921718,-0.0626516,0.1493459,0.05358579
55,-0.2562681,-0.1927748,-0.1019268,0.04477315,0.1795502
56,-0.350739,-0.2832763,-0.1075737,0.1054935,0.2252925
57,-0.1034209,-0.1413389,-0.1484408,0.04421045,0.03733192
58,-0.115112,-0.09971208,0.005382565,0.08894817,0.1661073
59,-0.1142207,-0.004231456,0.06110783,0.09342345,0.2905313
60,-0.07407734,-0.06804829,0.02092951,-0.01932448,0.3171919
61,0.06436782,0.04351531,0.01213304,-0.1004647,-0.06317294
62,0.09756857,0.08985475,-0.1187523,-0.2810458,-0.2625352
63,0.1206291,0.0137585,-0.1599538,-0.1911467,-0.2997791
64,0.07456845,-0.08910497,-0.08389854,-0.02649991,-0.2294145
65,0.356087,-0.0125107,-0.1583432,-0.03800239,-0.2788012
66,0.153795,0.07783355,0.0113089,0.03603177,-0.06435176
67,0.3016361,0.2057505,0.1236999,-0.03028641,-0.2776738
68,0.1140026,0.1009554,0.1536089,-0.06520188,-0.1843174
69,-0.1499652,0.1802457,0.1936461,-0.007501737,-0.04297554
70,-0.08917342,0.1542032,0.01625313,0.04372787,-0.02079645
71,0.03854012,0.03631017,-0.04495327,0.0889995,0.03226365
72,0.0491742,-0.1408077,0.08747667,0.1430273,0.02858636
73,0.0812504,-0.03400679,0.001357674,0.08786527,-0.009989356
74,-0.1245061,0.01546411,0.0871567,0.04636889,0.1677976
75,-0.1511783,0.02552939,0.179157,0.06345193,0.1863129
76,-0.2314657,-0.06043303,0.04509117,-0.0257978,0.2906244
77,-0.1829313,-0.03679475,-0.08032993,-0.1602214,0.01138794
78,-0.1883447,-0.1046609,-0.1352721,-0.1138281,0.1391898
79,-0.01362087,-0.2090038,-0.1282288,-0.1044529,-0.02092926
80,0.03219554,-0.1201892,-0.03334022,0.05473605,0.04696074
81,0.1822949,-0.1188715,-0.05248649,0.07206527,-0.01387385
82,0.09357034,-0.163719,0.05467089,0.09360637,-0.004036153
83,0.1458694,-0.03653153,-0.06366468,-0.09889371,-0.08715023
84,-0.0692478,-0.09192198,-0.116166,-0.1908045,-0.05362802
85,-0.1887284,0.02297346,-0.03153588,-0.03598365,0.1545572
86,-0.1622677,0.1130887,0.01386163,0.1144646,0.1526422
87,-0.1199115,0.1293923,0.08056895,0.0189506,0.1010138
88,-0.2385153,0.06869273,0.1595046,0.1806194,0.1419497
89,-0.2261722,0.05815715,0.2524768,0.06328572,0.0825147
90,-0.1924643,-0.01831015,0.1695727,0.08343571,0.2576743
91,-0.09091371,-0.01911565,-0.01408762,0.02036538,0.1532788
92,-0.1327119,-0.01795339,-0.1045203,0.08513937,0.1312207
93,0.2133225,-0.01604499,-0.06884839,0.06792044,-0.1434567
94,0.3005361,-0.06642642,-0.04193266,0.0007300414,-0.1734374
95,0.4073177,0.006341301,-0.1154564,-0.1576675,-0.3031243
96,0.2588143,0.1883774,-0.05823539,-0.2220487,-0.3758945
97,0.03405275,-0.1142032,-0.114419,-0.200024,-0.2407715
98,0.05746557,-0.08581306,-0.09017526,-0.06512139,-0.1835572
99,0.1570041,-0.0770143,-0.1333786,-0.08052296,-0.2054415
100,0.1250005,0.1117483,-0.06020274,-0.206727,-0.07570921
101,0.1808212,0.1311425,0.03745888,-0.04755602,-0.01160002
102,0.1932621,0.2101289,0.1657759,-0.03713019,-0.02508632
103,-0.05401836,-0.04916743,0.07954603,-0.06269492,0.02130853
104,-0.1126957,0.0356959,0.182962,0.07297251,0.02034682
105,-0.2478698,0.1004507,0.08969115,0.1064679,0.04982259
106,-0.08089515,0.1516883,0.134475,0.04303685,-0.07921589
107,0.03224892,0.06821948,0.07786049,0.1650837,0.1364397
108,0.0676418,-0.03703357,0.03051558,0.05093066,0.2824195
109,-0.05795427,-0.215487,-0.05213957,0.007343247,0.2678686
110,-0.08447486,-0.2326132,-0.1434296,0.05051954,0.04699421
111,-0.1499868,-0.1369767,-0.07244924,0.01530157,-0.007302854
112,-0.1026379,-0.00737792,-0.02641507,-0.08302249,-0.07849611
113,-0.1458927,-0.04849972,0.01879492,-0.06370943,0.1099365
114,-0.2572123,-0.1150223,-0.07010172,0.02839417,0.2987007
115,-0.04246023,0.03327181,-0.07074276,0.0842019,0.07723339
116,0.123468,0.01465456,0.1042877,0.05862183,0.001413669
117,0.002653937,0.1451211,0.2350429,0.0698817,0.1161752
118,0.02656217,0.0830574,0.03797842,0.02161775,0.00125143
119,-0.2056539,0.0557527,0.04565219,0.07761841,0.2194849
120,-0.1704041,-0.1186112,-0.0950791,-0.1386633,0.1572465
121,-0.1041539,-0.1563564,-0.1565838,-0.2649201,-0.04267877
122,-0.1125036,-0.1487444,-0.2887468,-0.1885477,-0.06427315
123,0.0494906,-0.2191405,-0.172061,0.03938481,-0.1495559
124,0.1430255,-0.02146624,-0.05850891,0.05613303,-0.1267703
125,0.2989132,0.1628092,0.1091531,-0.07265018,-0.1612839
126,0.2682389,0.2254575,0.2304716,0.02375422,-0.03800448
127,0.2158401,0.1752676,0.09596555,0.09352338,-0.1128402
128,0.1978775,0.1780575,0.03238595,-0.1232422,-0.3620806
129,0.05541954,0.1055605,0.1230116,0.06007124,-0.1350089
130,0.2090905,0.09409633,0.07294396,-0.1098181,-0.3310176
131,-0.1259324,-0.002261393,0.0763345,-0.06871275,-0.07713156
132,-0.1193892,-0.04164953,-0.03859498,-0.0009055224,0.1983756
133,-0.08037182,-0.1462696,-0.1206125,0.09101878,0.09931735
134,-0.02395295,-0.09983677,-0.1429951,0.09940199,0.1273438
135,-0.1473289,-0.1070127,-0.04034042,0.01657784,0.1412423
136,-0.169274,-0.2075295,-0.1042759,-0.07323064,0.03479987
137,-0.08310537,-0.1589429,0.06334678,-0.06359535,-0.07938449
138,-0.0539941,-0.01295146,-0.05544854,-0.0002743193,0.05808905
139,-0.09484782,0.2370213,0.00969649,-0.1059644,0.06949085
140,0.01087738,0.1267179,0.09986429,0.1199566,0.1272451
141,-0.02863191,0.1208226,0.2364676,0.2002481,0.08726221
142,-0.1397322,0.07391985,0.2542277,0.2763389,0.09647573
143,-0.1108109,0.02170383,0.2042557,0.3654605,0.03510498
144,-0.08887741,0.1404986,0.0921307,0.1361985,-0.1167037
145,0.02722648,-0.0893864,-0.04577429,-0.07592201,-0.05542478
146,0.02188794,-0.2068794,-0.06479486,-0.2183753,-0.05039345
147,0.09340059,-0.07822559,-0.1742091,-0.332354,-0.04850522
148,-0.04159459,-0.05327178,-0.1901535,-0.1930077,0.1032144
149,-0.09475218,-0.01690675,-0.1766381,0.0571602,0.1786051
150,-0.1299058,0.05569433,0.04634866,0.132205,0.1708116
151,-0.07005446,0.1591261,0.129562,0.0913877,0.03662432
152,-0.06097029,-0.06787411,0.08105086,0.1522225,0.1889076
153,0.0410472,-0.04445906,0.07321029,0.04410184,0.07331211
154,-0.06325613,0.124322,0.03287254,-0.002836512,-0.03211255
155,-0.134496,0.01562895,-0.09214987,-0.05295429,0.0450884
156,-0.008790198,-0.1283197,-0.1529996,-0.06053079,0.0217691
157,0.0398766,0.007301979,-0.2135004,-0.0588815,0.03343943
158,0.1202053,0.01531474,-0.08827322,-0.06714297,0.108119
159,0.01512062,-0.1046739,-0.04812301,-0.09776895,0.09315735
160,0.01435047,-0.04269824,-0.06994921,0.02473394,-0.1036741
161,-0.175743,-0.06260341,0.01282699,0.1652747,-0.01434255
162,-0.04300683,0.08260891,0.06861206,0.06321276,0.07895202
163,0.157637,0.1004794,0.09970649,-0.1393645,-0.1867965
164,-0.02182074,0.05000296,0.05751823,-0.007001806,-0.03402676
165,0.03754611,0.04637793,-0.04497752,0.04326596,-0.0782345
166,0.0653561,-0.004660339,0.06472003,0.09776918,-0.0762232
167,0.09175385,-0.02501779,0.1937621,-0.07835154,-0.01594438
168,0.1054355,0.08855956,0.1768562,-0.06496665,-0.1177932
169,-0.2014543,-0.01135632,0.01204091,0.145764,0.1748804
170,0.1043452,0.09005735,-0.08064805,-0.0302693,-0.1289569
171,0.1818798,-0.02984374,-0.2113594,-0.1128922,-0.1568812
172,0.1357978,0.01680994,-0.1451336,-0.2606774,-0.1088614
173,0.2382756,0.03802139,-0.09735774,-0.2093643,-0.06977155
174,0.0868231,0.009185694,-0.09293449,-0.03951229,-0.003716551
175,-0.09448083,-0.155034,0.06354876,0.08311924,-0.01137359
176,-0.00403721,-0.1606164,0.1150956,0.07163194,-0.08139382
177,0.01005411,-0.1114684,-0.01990253,0.03999206,0.08084083
178,-0.08998112,0.005487243,0.1063674,0.2272176,0.2535305
179,-0.02117946,0.07467798,0.1081862,0.1220559,0.1651014
180,0.09013017,0.1981802,0.1598284,0.04885139,0.03353731
181,-0.1210614,0.1046225,0.1956481,0.1345377,0.1204152
182,0.1613309,0.1751572,0.06127176,-0.1147799,-0.2386926
183,0.09686969,0.1839013,0.04738096,-0.1643557,-0.241607
184,-0.05735211,0.0016428,-0.07971082,-0.227142,-0.01390183
185,0.034834,-0.1494662,-0.1887331,-0.1215939,-0.01660484
186,0.05985131,-0.1532628,-0.1889367,-0.2310857,-2669825e-11
187,0.1748383,-0.2108105,-0.2007032,-0.137222,-0.1475197
188,0.1327435,-0.2151059,-0.0680312,-0.01840475,-0.2004642
189,0.1061261,0.008216293,-0.08099082,0.02154947,-0.07359293
190,0.05569601,-0.1128759,-0.06497642,0.1112194,0.01233429
191,0.04445759,0.1123652,0.05970795,0.1498984,0.139306
192,0.07522854,0.1336436,0.1392341,0.06338053,0.1223515
193,0.04644038,0.2207546,0.268506,0.03630374,-0.01117915
194,-0.00239968,0.3735196,0.1635623,-0.1108908,-0.09945124
195,-0.01598434,0.1854441,0.04991945,-0.03230947,-0.02017604
196,0.01083102,-0.06701112,-0.01633567,0.04357441,0.01734895
197,-0.3545111,-0.3339734,-0.1161675,0.1157022,0.1320144
198,-0.3898088,-0.3461109,-0.1341872,0.1744404,0.3148017
199,-0.4240137,-0.1826951,-0.007430384,0.1761749,0.339479
200,-0.3109747,-0.1117006,-0.05029644,0.1563892,0.3021276
201,-0.2466711,-0.1475289,-0.1118117,0.01457609,0.3539087
202,-0.2195829,-0.1372719,-0.1702419,-0.06728906,0.2928393
203,-0.137501,-0.08062084,0.03930341,-0.01552399,0.129598
204,-0.1651504,0.05779798,0.02469148,0.08245383,0.1164972
205,0.01303132,0.01632566,0.04614961,-0.03748143,-0.1127859
206,0.1613322,0.06842545,0.07827018,0.1036564,-0.03790042
207,-0.01619219,-0.06203991,0.002394346,0.007930776,0.04277833
208,0.1473508,0.1621199,0.1549656,0.07270693,-0.2109806
209,0.1744477,0.2037672,0.07462832,0.009554488,-0.1474716
210,0.3612759,0.1218309,0.006828333,-0.07259323,-0.3968314
211,0.08660462,0.006252742,-0.1324,-0.03098878,-0.1631387
212,0.0882154,-0.09513799,-0.1981482,-0.1315782,-0.1457365
213,0.03031189,0.07285452,-0.2549374,-0.2082728,-0.03443936
214,-0.01535178,0.1289512,-0.02213242,-0.05202671,0.1149497
215,-0.1077417,-0.04643416,0.03928939,-0.04880111,0.2588974
216,-0.2688866,-0.09367784,0.01252553,0.0840545,0.2458758
217,-0.3963845,-0.01479731,0.2403998,0.1668659,0.2470664
218,-0.1797916,0.02043492,0.067767,0.1720829,266528e-9
219,0.03644142,0.07476417,0.07020441,0.1167163,-0.1852344
220,0.02252315,-0.1023734,-0.006507984,-0.0116993,-0.04342047
221,0.02486667,-0.01910316,-0.04074915,-0.1399262,-0.003928256
222,0.1215634,-0.1059375,-0.07219772,-0.1060092,-0.08183299
223,0.1759775,0.0980743,-0.1054232,-0.1644386,-0.3203398
224,0.2263405,0.06977795,-0.1257125,-0.002932961,-0.1457925
225,0.1497579,0.08640665,0.04915252,0.1589449,-0.1286395
226,0.1144314,0.04333637,0.2210382,0.08528339,-0.1547855
227,0.08590652,0.01600959,0.145467,0.03703256,-0.01270026
228,0.1523476,0.1217434,0.1157497,-0.1104868,-0.08907928
229,0.178979,0.03707061,-0.06458235,-0.1344908,-0.1791611
230,0.1078818,0.09888697,0.04362138,-0.1941786,-0.185884
231,0.07907653,0.05183873,0.06918994,-0.1766359,-0.1794665
232,0.1922715,-0.01807952,-0.1030115,-0.1490232,-0.2543099
233,0.2719255,0.09984049,-0.102536,-0.09847983,-0.3383321
234,0.2481426,0.09559998,-0.09903304,0.051771,-0.1826117
235,0.3220864,0.04047736,0.03063006,-0.009472753,-0.2034372
236,0.07696534,0.0296536,0.1859994,0.005233711,0.02628342
237,-0.04608735,-0.01688002,0.04705558,-0.01309368,0.04985641
238,-0.2815536,-0.1382232,-0.02497412,0.008657003,0.3178317
239,-0.2461969,-0.1081179,-0.04405054,0.07526484,0.1813382
240,-0.08064515,-0.02147651,0.0235851,-0.1176233,-0.1483827
241,-0.07640793,-0.03187212,0.10726,-0.07911218,0.1393628
242,-0.08775684,-6361268e-11,-0.01100213,0.018417,0.1683862
243,0.02141763,-0.0048183,-0.04430639,0.2153889,0.04207757
244,-0.06661908,0.001704024,0.06990943,0.2561237,0.1138723
245,-0.03800721,-0.08651898,0.07475326,0.0645397,0.008587861
246,-0.2813007,-0.1128207,0.07175675,0.009449835,0.2673975
247,-0.3324689,-0.1819075,-0.02469883,0.07728505,0.318764
248,-0.2260896,-0.09461856,0.03428532,0.02034439,0.06789058
249,-0.07746711,-0.1792586,-0.1333481,-0.02642673,0.2165193
250,-0.03438273,-0.05821593,-0.07837743,-0.01171964,0.1861551
251,0.02131334,-0.01457805,-0.05150596,0.09610339,0.06588095
252,-0.08153051,0.02420789,0.002907279,0.2244812,-0.02240714
253,0.0757803,-0.03574729,0.04595074,0.1146737,-0.188474
254,0.09206062,-0.07577995,0.2189968,-0.0004073937,-0.1159212
255,0.1641388,0.03892437,0.2192409,-0.04765838,-0.1118082
256,0.2601948,0.1812076,0.09685276,-0.1308629,-0.259653
257,0.3025003,0.2166117,-0.1201092,-0.2464473,-0.2947131
258,0.3123239,0.1682742,-0.1727275,-0.2219159,-0.3001711
259,0.2734325,0.1527318,-0.1915925,-0.161159,-0.3443927
260,0.167783,0.06630469,-0.1212131,-0.01845155,-0.2940012
261,0.150399,-0.1669748,-0.07593133,0.0006339895,-0.2351121
262,0.331172,-0.02515869,0.1670817,-0.07950087,-0.2931893
263,0.1604016,0.05127831,0.1342356,-0.05629584,-0.1733209
264,0.1579817,0.1103076,-0.07646986,-0.1317172,-0.1047107
265,0.0548288,0.1187948,0.07259383,-0.1223113,-0.04984957
266,-0.1759822,-0.009120159,0.03944162,0.02155243,0.134866
267,-0.0379626,0.07067648,0.1124171,0.1383542,0.1595723
268,0.06816986,0.06771647,-0.09335822,0.05709843,0.1868462
269,-0.01830326,-0.08794493,-0.1529094,-0.05621873,0.1997544
270,-0.1203472,-0.03949392,-0.1237359,-0.1191291,0.1079378
271,-0.3773598,-0.1824182,-0.08666734,-0.00231142,0.218454
272,-0.4985331,-0.3255856,-0.03115364,0.11806,0.4696602
273,-0.4590254,-0.4353313,0.0022957,0.1677234,0.4924643
274,-0.499011,-0.2806537,-0.06444028,0.1517539,0.4453194
275,-0.2945451,-0.127189,-0.1504752,0.1226987,0.3199869
276,-0.4048111,-0.02277617,-0.001522665,0.2088701,0.253871
277,-0.3841444,-0.04627237,0.2218902,0.2726457,0.2187357
278,-0.100977,0.09193959,0.3645763,0.1819238,0.2353397
279,-0.05804211,0.08071284,0.2753591,0.2803623,0.1352263
280,0.1046996,0.0870528,0.1715883,0.1208072,-0.08679347
281,-0.08594895,-0.0040893,-0.1030228,0.04633599,-0.0226781
282,0.03643045,0.05232665,-0.15251,-0.08976892,-0.1193714
283,0.1796661,-0.008945457,-0.1577187,-0.266092,-0.2355117
284,0.2601851,-0.08207463,-0.1176592,-0.3579483,-0.2913766
285,0.2052653,-0.04847475,0.08560513,-0.1733558,-0.1473537
286,0.1803948,-0.06696925,0.009496122,0.01054714,-0.1026524
287,0.3287563,0.04831809,-0.1878556,0.05828694,-0.02151199
288,0.271254,0.08739944,-0.09424409,-0.07950124,-0.1172401
289,0.2256039,0.2571424,0.03071173,-0.04859477,-0.3463695
290,0.2198916,0.1715739,0.01638537,-0.1779969,-0.2413523
291,0.08546585,0.1491366,0.1711536,-0.1189195,-0.2480447
292,-0.2674924,-0.03115554,0.1634768,0.03205214,0.03686171
293,-0.01209835,-0.09125217,-0.05041143,-0.1203744,-0.07555906
294,0.001317772,-0.07305279,-0.1530724,-0.01441111,-0.1085521
295,0.03159791,-0.02826467,0.01640596,0.0665515,-0.008204975
296,0.04195808,0.004142302,0.04747745,0.0828734,0.2502181
297,0.1171021,0.1877855,0.1213786,0.04162774,-0.0983879
298,0.207973,0.2474352,0.2575962,0.1052612,-0.1644914
299,0.2842998,0.2526077,0.2288783,0.1074955,-0.1545114
300,0.1720938,0.06226694,0.03680173,0.022374,-0.0733792
301,0.02309973,-0.1856319,-0.1658948,-0.01856155,-0.02393705
302,0.178076,-0.02399403,-0.175503,-0.1201594,-0.3222375
303,0.04986808,-0.1109741,-0.2163254,-0.1003698,-0.1686786
304,0.05843663,-0.1454328,-0.1692105,-0.1646801,-0.1539374
305,-0.08262839,-0.1248289,0.03683886,-0.07154999,0.1822459
306,-0.1816755,-0.0725691,0.0688848,-0.058465,0.2452634
307,-0.3166788,-0.0176164,0.0151505,0.03115091,0.3899413
308,-0.2222728,-0.07656491,-0.02073867,0.1549245,0.273729
309,-0.3655459,0.1118054,0.1398626,0.1408909,0.3778884
310,-0.3088777,0.1854512,0.08618321,0.281292,0.360646
311,-0.3763386,-0.02429105,0.1835421,0.2680632,0.3224665
312,-0.1844742,-0.1636525,0.05923506,0.2056658,0.2239688
313,-0.08934634,-0.2753684,-0.08831727,0.001680194,0.09106096
314,0.1093482,-0.1243418,-0.162676,-0.22503,-0.1985331
315,0.200742,-0.1231083,-0.2041224,-0.1964212,-0.1865542
316,0.2350148,0.008273846,-0.2299538,-0.3396838,-0.1962183
317,0.3922794,0.1605771,-0.08548392,-0.3679044,-0.2825359
318,0.4542279,0.2037897,-0.00742381,-0.1736546,-0.4040205
319,0.2487203,0.2376837,0.05352802,-0.03216083,-0.3250434
320,0.1920038,0.02627433,0.1474561,0.1198431,-0.141308
321,0.0163787,0.007021492,0.2251765,0.1276866,0.08312957
322,0.2044695,0.1559225,0.07699163,-0.007873375,-0.1657669
323,0.07509924,0.1332478,0.126203,-0.08011139,-0.2102415
324,0.06255571,0.1798199,0.02037569,-0.03185691,-0.08959883
325,-0.05311669,-0.01006104,-0.05725375,0.05822813,-0.08799631
326,-0.1695466,-0.009974697,0.01645921,-0.02614435,0.03502085
327,-0.2163664,-0.0125554,-0.07631805,-0.05426073,0.3253425
328,-0.2114848,-0.007142264,-0.0735077,-0.005862203,0.3475445
329,-0.2481624,-0.09047285,-0.07676713,0.06246398,0.2804362
330,-0.1511465,-0.1220144,-0.06679213,0.0708913,0.2342532
331,-0.2652492,-0.2211811,-0.06020314,-0.001980289,0.2896025
332,-0.116871,-0.2682038,0.00906266,-0.03297474,0.1621392
333,0.008429682,-0.1418407,-0.009224926,0.03323525,-0.05685759
334,-0.05758066,-0.002995401,0.07461616,0.04311297,-0.1207846
335,-0.162366,-0.0392705,-0.02058637,-0.1501449,-0.0117375
336,0.04061862,-0.03925457,0.07293448,-0.01292289,0.002624175
337,0.1234934,0.04456266,0.04295578,-0.1844386,-0.006255467
338,-0.02229743,-0.01000254,0.01009603,-0.03123233,0.05468802
339,0.06914813,0.03194259,0.03042538,0.08508741,-0.1449199
340,-0.00344687,0.07951512,-0.04405416,0.04999384,-0.07107467
341,0.06309388,0.1659525,0.1493426,-0.04459246,-0.08095604
342,0.02511318,0.01039025,-0.02747316,-0.128445,-0.04609495
343,-0.1611832,-0.1133419,0.04128436,-0.009487949,0.1848335
344,-0.1992185,0.006771969,-0.03368384,0.01244202,0.110997
345,-0.02664099,-0.03739581,0.0213907,-0.04313768,-0.1092173
346,-0.1005065,-0.09267958,0.02193389,0.1255228,-0.05966278
347,-0.0002257169,-0.07763667,-0.08884329,-0.04396082,0.03148597
348,-0.0340711,-0.04270877,0.02348965,0.1130784,0.1404066
349,-0.03655824,0.1091802,0.09220432,0.06218587,0.1574735
350,-0.02586125,0.04518577,0.09092485,-0.04724014,0.07240626
351,0.01626224,0.002483051,-0.07301311,-0.07770098,0.002959087
352,-0.01770439,-0.0201628,0.0965808,-0.04353615,0.04924648
353,-0.005814228,-0.04213918,0.06137596,0.153724,-0.0918324
354,-0.01453147,0.004193814,-0.01672083,0.1235916,-0.02231129
355,0.09213153,0.07074866,0.1064866,0.08142873,-0.04282635
356,-0.005526171,0.001731451,0.02817975,-0.02973347,0.03212647
357,-0.02647703,-0.028608,0.01551391,-0.2396256,-0.09034697
358,0.0249697,-0.171628,-0.1095753,-0.2392244,-0.119334
359,0.04282608,-0.1100718,-0.2029299,-0.123819,-0.09238208
360,0.120972,0.05314087,-0.1583543,0.01732458,-0.1184426
361,0.2240909,0.2167225,-0.03587796,0.02308359,-0.1694996
362,0.2919292,0.1228874,-0.006769636,0.1343148,-0.04794757
363,0.1096943,-0.104829,0.02612727,0.02467645,-0.008047279
364,0.09729424,-0.06249309,0.03859077,-0.1304538,-0.1530561
365,-0.08293358,-0.1066895,0.1085789,-0.09981509,-0.0865221
366,-0.08054095,0.04508328,0.08742771,0.09534864,-0.1541006
367,-0.04286488,0.08289835,-0.02383512,-0.004607607,0.02918786
368,-0.1282759,0.07335776,0.02119815,-0.004352813,0.0246674
369,-0.1444638,0.05989221,0.1591176,0.06691987,0.09024242
370,0.01578446,-0.1030933,-0.02590359,-0.07400851,0.0501334
371,0.08220301,-0.1555677,-0.1572131,-0.1606765,0.07289036
372,0.05425764,-0.03192063,-0.1836671,0.01400881,0.02664455
373,-0.07326474,-0.01108341,-0.0182427,-0.02682372,0.02587029
374,0.04248358,-0.1274589,0.03450696,0.05686986,-0.09200127
375,-0.06013233,-0.02441274,0.06142457,0.1147445,-0.05908624
376,-0.02548029,-0.07389318,0.05449269,0.1171122,0.1158715
377,0.1198462,0.003177049,0.08211691,0.1168292,0.02016722
378,-0.03998675,-0.01102512,0.09430021,0.02773778,0.06287561
379,0.07219864,0.1826489,0.09282552,-0.07098173,-0.09700615
380,0.1378018,0.2935078,0.007210932,-0.18434,-0.1291258
381,0.01822758,0.2748177,0.04633605,-0.08730181,-0.1049371
382,0.1027044,0.113079,-0.01100558,0.06400877,-0.1955021
383,0.09409936,-0.2013433,0.01141786,-0.05932409,-0.07560428
384,-0.1074049,-0.1834447,-0.001769754,0.09747625,0.1654331
385,-0.06548377,-0.1287212,0.03099497,0.03488551,-0.0178656
386,-0.1244094,-0.03633298,0.02659374,0.137893,0.01927401
387,-0.04911806,0.2008577,0.0280505,0.07587675,0.1575494
388,0.04745435,0.3767452,0.1277409,0.02308917,0.1060147
389,0.06452629,0.1050809,0.06473035,0.009609731,0.02607341
390,-0.08019235,-0.03510702,0.04561782,0.1071461,0.0449688
391,-0.1560023,-0.1456663,0.03412647,0.03569692,0.1381313
392,-0.1295231,-0.2763226,-0.1628078,-0.0561116,0.01492368
393,-0.01639175,-0.1749156,-0.1680354,-0.1861392,-0.03540354
394,0.1426353,-0.1401758,-0.2365266,-0.2002133,-0.1342321
395,0.1585461,-0.0868183,-0.2106422,-0.08105452,-0.1785581
396,-0.02324835,-0.02246349,-0.1257715,-0.07266086,0.1231207
397,0.02777417,-0.02549133,0.08648172,-0.09707769,-0.03174691
398,-0.1635611,-0.04257927,0.09323847,0.01710988,-0.02469308
399,-0.06058259,-0.05089014,0.07495871,0.1708095,0.01631319
400,0.07090418,0.1076737,0.1213548,0.2096195,-0.03278926
401,0.1837655,0.1527008,0.05792877,0.05244832,-0.1165987
402,0.06773928,0.1108954,-0.09061006,-0.04916569,-0.07649092
403,0.04553353,0.08889019,0.0183743,-0.1117225,-0.1342296
404,-0.1458679,-0.1234826,0.06864252,0.01103535,-0.04790548
405,-0.1213227,-0.09369693,-0.05772156,-0.02841856,0.04967485
406,-0.02211745,-0.004329868,0.06864307,0.02019036,-0.07175612
407,0.06856071,-0.02387712,0.007615031,-0.1652064,-0.04976092
408,0.08042478,-0.06813012,-0.001807217,-0.1026052,-0.0130443
409,0.05973648,-0.0428919,-0.0194488,-0.04034655,0.1609002
410,-0.3485081,-0.1361759,0.004611016,0.178714,0.3462947
411,-0.3470826,-0.07424745,-0.005461227,0.2098841,0.263329
412,-0.2190532,-0.001724751,0.08514814,0.1531526,0.0212415
413,-0.1218494,-0.1826051,0.05147097,0.08441998,0.160648
414,-0.01175688,-0.1035503,-0.1195661,0.01113152,0.02494906
415,-0.06669239,-0.04679691,-0.1084965,0.005563766,0.1205463
416,-0.04358789,0.110236,0.1152046,0.001747587,0.04877953
417,-0.1019381,0.09980066,0.2814692,0.03573371,-0.01004402
418,-0.112404,0.03056291,0.1440937,0.1448368,0.09962665
419,0.08476171,0.04016792,-0.03553297,0.1177352,-0.01138586
420,0.1317846,0.07353493,0.03502608,-0.02659486,-0.05574079
421,0.2629544,0.03712859,-0.01159781,-0.2454219,-0.1149912
422,0.1541294,0.03880891,0.03561501,-0.1054548,-0.2449414
423,0.09136579,0.05005323,0.03952145,-0.003233404,-0.2669028
424,0.1037912,-0.05649073,-0.1585663,-0.06393477,-0.1429388
425,0.1030041,-0.1049875,0.009129948,-0.04432635,-0.1176128
426,0.2294439,0.06418268,-0.01270328,-0.08903307,-0.1496854
427,0.2115334,0.1128454,-0.007806312,0.08299557,-0.06543779
428,0.03647736,0.1614999,0.06222991,0.08669776,-0.05480937
429,-0.01139757,0.09319867,0.06820639,0.04233491,-0.1280819
430,0.1690241,-0.02095277,-0.06955642,0.02232922,-0.05115974
431,0.05281661,-0.06488414,-0.128847,-0.07183181,0.07465432
432,0.01210549,-0.05650219,-0.06023507,-0.1426063,-0.03536958
433,-0.178527,-0.09377836,0.06258706,-0.09999024,-0.1076113
434,-0.01351018,-0.01503533,0.03512655,0.02859871,-0.1785875
435,-0.05599608,0.05062611,-0.06162274,0.08072292,-0.02096096
436,0.2258755,0.017753,-0.006177225,0.0009041031,-0.04766443
437,0.2262846,0.09159594,0.0973534,0.09481044,0.01535453
438,0.05736925,0.03120383,0.002780111,0.08910807,-0.001481309
439,0.03183336,-0.02269671,0.07614523,0.1049279,0.01555571
440,-0.03506894,-0.1439616,0.01470267,-0.03886386,0.08143019
441,-0.09628025,-0.2303546,0.02074256,-0.1016706,0.05050263
442,0.01338778,-0.0468192,-0.01704458,-0.1185126,-0.1215776
443,0.007217662,0.04577188,-0.01242868,-0.1511325,-0.06323054
444,-0.02045823,-0.07199547,-0.003134345,-0.00664256,-0.04665212
445,0.02666632,0.01154973,-0.1004432,-0.1286932,-0.008742285
446,0.08404793,-0.1169785,-0.2170255,-0.08407907,0.04795866
447,0.03274325,0.008390285,0.1273205,0.08241471,0.005306008
448,-0.06792536,-0.05569712,0.04671032,0.1849332,0.1534285
449,-0.01040961,-0.04631171,0.02928015,0.06492499,0.07935735
450,-0.02356607,0.1667071,0.06267695,0.1418392,-0.02111241
451,-0.1163204,0.1316932,0.2317803,0.08804417,0.04041518
452,-0.2721698,-0.07666465,0.1500926,0.1388932,0.2251281
453,-0.1361457,-0.1032416,-0.05340274,0.04651568,0.2587167
454,-0.4345479,-0.2256796,-0.02171931,0.1014884,0.45274
455,-0.1748755,-0.09256176,0.05484223,0.05292377,0.08868143
456,-0.0001783652,-0.1133229,-0.08924891,0.03320385,0.08593763
457,0.3044529,-0.03958005,-0.08002966,-0.1549549,-0.256449
458,0.1544631,0.04688018,0.0375897,-0.03577863,-0.2264299
459,0.2446921,0.1738395,0.006363068,-0.009735772,-0.1074059
460,0.2150195,0.03330773,-0.05650453,-0.07617776,0.06403632
461,0.133205,0.01937587,0.01281175,-0.1551712,-0.09990366
462,0.08565922,0.1469081,0.1289279,-0.1063484,-0.2109549
463,0.02058396,0.1488637,0.1458005,-0.009764968,-0.1522512
464,0.04601839,-0.01140287,-0.05040379,-0.011424,0.002632413
465,-0.01087769,-0.1034676,-0.1356,0.02952342,0.0996637
466,0.09325301,-0.08744553,-0.01144611,0.05908957,-0.04009407
467,-0.03063347,-0.01267683,0.1183509,-0.02597979,-0.1010915
468,-0.1518593,0.08668325,0.08206764,-0.01288156,0.07377096
469,0.008431646,0.1352701,0.0339368,0.05120249,0.1386738
470,-0.004275799,0.01773565,0.09885075,0.207648,0.133807
471,-0.171868,-0.1160297,-0.001012161,0.2174968,0.333114
472,0.1505511,-0.03032213,-0.06085724,-0.0498565,-0.1155859
473,0.1833541,0.008804329,-0.1198474,-0.2681751,-0.3221535
474,-0.01900961,-0.03595929,-0.114028,-0.09318236,-0.1131947
475,-0.002215914,-0.08022118,-0.1547789,-0.1039358,-0.01495601
476,0.07248326,-0.04353939,0.003264558,-0.0533343,-0.03185562
477,0.1058243,0.06957484,0.1661843,0.04418376,-0.01487302
478,-0.1630107,-0.008464838,0.05220916,0.1435162,0.1770756
479,-0.1029927,-0.1358996,-0.07480928,0.105899,0.223425
480,-0.1170123,-0.08494896,0.03341204,0.07992896,0.3222318
481,-0.1839567,0.0385491,0.04069619,-0.02309775,0.213219
482,-0.1822243,0.07840877,-0.07791976,0.03268579,0.1003771
483,-0.241268,-0.00708036,0.09272796,0.2017931,0.2364907
484,-0.1730749,0.01016069,0.1042245,0.01272883,0.2231285
485,-0.06744742,-0.004026248,0.06198132,0.1033802,0.1439539
486,0.0193886,-0.1124404,0.09084772,0.09556382,0.06441411
487,-0.1486447,-0.1976296,0.008622398,0.09239564,0.1690368
488,0.05778984,-0.02382374,-0.07040453,-0.1664283,-0.08468012
489,0.1322904,0.1223291,-0.05861433,-0.1483742,-0.03494556
490,0.05344854,0.03591233,0.03305205,-0.03777613,0.08864034
491,0.02451043,-0.05192297,-0.11664,-0.05027325,-0.001840885
492,-0.05251267,-0.2145086,-0.1874487,0.002691563,0.04275064
493,0.2019774,-0.00392071,-0.09425361,-0.006963642,-0.213115
494,0.09695305,-0.0430996,-0.09997878,0.007457599,-0.1471247
495,0.09580534,-0.009272262,-0.1007948,-0.1778274,-0.1054884
496,0.2000124,0.06213312,-0.05035423,-0.2262501,-0.1638085
497,0.1838496,0.04626974,0.02434473,-0.1007314,-0.1483503
498,0.2471172,0.07622769,0.1084563,0.06472396,-0.3415501
499,0.2882333,0.06781802,0.07023678,0.1828343,-0.14432
500,0.3250037,0.168643,0.03822442,-0.01983594,-0.1190702
