iter,u1,u2,u3,u4,u5
250,-0.03578089,-0.05828671,-0.07833879,-0.01157082,0.1876069
251,0.02036227,-0.01551598,-0.05133408,0.09734591,0.06695565
252,-0.08261178,0.02260533,0.003182997,0.2265494,-0.02118447
253,0.07953169,-0.03519362,0.04596613,0.1141971,-0.1921408
254,0.09212707,-0.0759523,0.2191299,-2737949e-11,-0.1159943
255,0.1623511,0.03859613,0.2194642,-0.04700471,-0.109984
256,0.2605115,0.1821998,0.09689644,-0.1317805,-0.2598729
257,0.3047969,0.2185646,-0.1204653,-0.2488934,-0.2969407
258,0.3141242,0.1698297,-0.1730199,-0.2238813,-0.3019599
259,0.2759958,0.1537548,-0.1917584,-0.1624073,-0.3468952
260,0.1685287,0.06548313,-0.1211522,-0.01750417,-0.2945904
261,0.1487079,-0.1698341,-0.07608325,0.003336666,-0.2332459
262,0.332503,-0.02609055,0.1674508,-0.07796707,-0.2943765
263,0.1595385,0.05027935,0.134471,-0.05488207,-0.1722968
264,0.1591949,0.1108361,-0.07670095,-0.1325358,-0.1058983
265,0.05492987,0.1193906,0.07262982,-0.1228872,-0.0500864
266,-0.1816525,-0.01175061,0.03938017,0.02403195,0.1404306
267,-0.03963358,0.06924595,0.1127908,0.1402931,0.1612812
268,0.0688558,0.06675168,-0.09348005,0.05792957,0.1863348
269,-0.02013446,-0.09025911,-0.1534185,-0.05459589,0.2016087
270,-0.1213609,-0.04133334,-0.1240798,-0.1177904,0.108827
271,-0.3797634,-0.1846944,-0.08688908,-0.0003969504,0.2207504
272,-0.498539,-0.3285564,-0.03082548,0.1214363,0.4718274
273,-0.4606647,-0.4364658,0.002423155,0.1690598,0.4931466
274,-0.4956502,-0.2804583,-0.06556821,0.1508686,0.4477957
275,-0.2956576,-0.1270107,-0.1499422,0.1227069,0.319727
276,-0.4050637,-0.02325948,-0.001179203,0.2095295,0.2548251
277,-0.3862597,-0.04759324,0.2221052,0.2744619,0.2222873
278,-0.1003169,0.09255331,0.3648699,0.1823001,0.2358216
279,-0.05653991,0.08226672,0.2754622,0.2794992,0.134117
280,0.1052229,0.08832525,0.1714597,0.1195462,-0.08761099
281,-0.09004814,-0.005451864,-0.1035255,0.04677879,-0.01920679
282,0.03546527,0.05230233,-0.1527507,-0.09047429,-0.118926
283,0.1802296,-0.007927539,-0.1580002,-0.2678084,-0.2361973
284,0.261916,-0.08011087,-0.1179097,-0.3603355,-0.2929348
285,0.2026344,-0.04805269,0.08606296,-0.1729618,-0.1443642
286,0.1784743,-0.06696064,0.009846546,0.01131333,-0.1003298
287,0.3283524,0.04852393,-0.1877114,0.05851325,-0.02093567
288,0.2698947,0.08703854,-0.09427917,-0.07915641,-0.1160618
289,0.2250967,0.2573624,0.03091887,-0.04865186,-0.3461952
290,0.2200706,0.1717902,0.0161701,-0.1787073,-0.241777
291,0.08515241,0.1491846,0.1711338,-0.1191555,-0.247884
292,-0.2709167,-0.03285512,0.1633197,0.03346353,0.04029942
293,-0.009721872,-0.0906721,-0.05108107,-0.1219058,-0.0779188
294,0.005492694,-0.07116932,-0.1535326,-0.01695287,-0.1128445
295,0.03661266,-0.02564165,0.01660687,0.06421254,-0.01327529
296,0.04367555,0.004796492,0.04785679,0.08280167,0.2486412
297,0.1232084,0.1898563,0.1218381,0.04026984,-0.1043531
298,0.2150089,0.2502057,0.2583631,0.1036713,-0.1713933
299,0.293531,0.2566039,0.2295199,0.1045186,-0.1635786
300,0.180098,0.06547465,0.03674407,0.01914579,-0.08132206
301,0.02591062,-0.1851915,-0.1664669,-0.01985041,-0.02689411
302,0.1831349,-0.02237327,-0.1757275,-0.1221882,-0.3274522
303,0.051923,-0.110443,-0.216524,-0.1012319,-0.1706426
304,0.05785869,-0.1457135,-0.169386,-0.1646171,-0.1531173
305,-0.08820153,-0.1267611,0.03718691,-0.0689896,0.1881516
306,-0.1874467,-0.07456118,0.06909485,-0.05600229,0.2513525
307,-0.3259072,-0.02103155,0.0152347,0.03481083,0.399278
308,-0.230275,-0.07954025,-0.02081389,0.1578102,0.2816395
309,-0.3721322,0.1095889,0.1401518,0.1434573,0.3843342
310,-0.3113479,0.1846283,0.08650059,0.2825232,0.3631723
311,-0.3768503,-0.02514533,0.1836017,0.2690064,0.3231525
312,-0.1825731,-0.1644226,0.05896893,0.2061171,0.2222435
313,-0.08479808,-0.2756275,-0.08897507,0.001051709,0.08656931
314,0.1181791,-0.1222683,-0.1631923,-0.2278338,-0.2074095
315,0.2067168,-0.1213625,-0.2043288,-0.198463,-0.1924942
316,0.2378301,0.009427354,-0.2301131,-0.3410488,-0.1989168
317,0.3956487,0.1631375,-0.08525617,-0.3700901,-0.2857841
318,0.4569106,0.2070218,-0.007044495,-0.1762811,-0.4066711
319,0.2481889,0.2395788,0.05385401,-0.03353625,-0.3244815
320,0.1888045,0.02612137,0.1476372,0.1202653,-0.1382155
321,0.008259364,0.00349991,0.225302,0.1313335,0.09105737
322,0.2021893,0.1538988,0.07676303,-0.006274671,-0.1636692
323,0.07138582,0.1304098,0.1259487,-0.0777519,-0.2066837
324,0.05734177,0.1762747,0.0202764,-0.02849888,-0.08435545
325,-0.05841649,-0.01384615,-0.05749258,0.06169768,-0.08254175
326,-0.173993,-0.01289605,0.01647858,-0.02311274,0.03965036
327,-0.2192028,-0.01414899,-0.0762299,-0.05241408,0.3284047
328,-0.2115133,-0.006788751,-0.07324598,-0.00572143,0.3477631
329,-0.2481636,-0.08998466,-0.07658154,0.06232325,0.2805615
330,-0.1483426,-0.1207031,-0.06663213,0.06985055,0.2315012
331,-0.262213,-0.2206285,-0.06035711,-0.002764476,0.2865326
332,-0.1118624,-0.2672897,0.008891699,-0.03418199,0.1570412
333,0.01376291,-0.1407482,-0.009312269,0.03196989,-0.06222341
334,-0.05446975,-0.002425863,0.07466614,0.0425995,-0.1238233
335,-0.1614142,-0.03941279,-0.02112615,-0.1507708,-0.01263434
336,0.04164722,-0.03810983,0.07286422,-0.01416109,0.001564303
337,0.1256731,0.04690645,0.04268458,-0.1871712,-0.008444136
338,-0.02589315,-0.01010168,0.009876264,-0.0314732,0.05822277
339,0.06675283,0.03179135,0.03042643,0.08520654,-0.1425798
340,-0.007396989,0.07779439,-0.0441574,0.0515456,-0.06714187
341,0.06132531,0.1648799,0.1496277,-0.04311232,-0.07917282
342,0.02304864,0.008524278,-0.0278108,-0.127055,-0.04402364
343,-0.1677507,-0.1170387,0.04123897,-0.005874208,0.1912891
344,-0.2037796,0.004295988,-0.03365981,0.01492281,0.1154873
345,-0.0269451,-0.03717003,0.02138527,-0.04340369,-0.1089441
346,-0.1026564,-0.09252023,0.02207437,0.1255486,-0.05751712
347,-0.001072293,-0.07724288,-0.08904794,-0.04464937,0.03231582
348,-0.0364461,-0.04327004,0.02376074,0.1140241,0.1427252
349,-0.03497098,0.1098059,0.09258345,0.06212115,0.1559426
350,-0.0227958,0.04602471,0.09090831,-0.04808301,0.06939255
