T,hard,soft
10,0.41686698599999994,0.380251922
20,0.851258886,0.779994518
30,1.2834205159999998,1.1796649899999996
40,1.7352277100000002,1.589263978
50,2.1743609139999998,1.993851106
60,2.612244684,2.3981569640000004
70,3.0553023539999997,2.800672196
80,3.4031352799999994,3.1166889480000006
90,3.822811,3.5058663420000005
100,4.25270647,3.8983299720000004
