n,mehrotra,qpoases
4,0.0010052845064820043,0
5,15010011676832003e-22,0.00020972263906483346
6,0.0038025666804001683,0.0017005658213298219
7,0.001339759145271467,0.0024515518024432505
8,0.004103519242971343,0.008459714369925781
9,0.003769033554614004,0.1479758990970093
10,0.004363918475537826,0.9384693018754771
11,0.007881964468183327,0.8254139321175722
12,0.0032151771928154247,2.098815637202184
13,0.004743565255366102,1.371759061438207
14,0.008413509781580364,2.346906644658388
15,0.0028810445526344804,2.26426795420377
16,0.011182041572547078,2.0132004727188733
17,0.005124959916911002,2.0871480100286237
18,0.006609044446567425,2.1109439311108966
19,0.007799072584388201,2.058220906532078
20,0.004454146410947178,2.6270383635730434
