t,mehrotra,qpoases
10,0.003060206445647777,0.012529665470325404
20,0.0038025666804001683,0.0017005658213298219
30,0.0038431151597903674,0.008244568698950515
40,0.0038465403801527416,0.0037406187337823303
50,0.0038475750893893156,0.0036435326152959376
60,0.003848105607480504,0.001551170520115034
70,0.00384846108998846,0.018870671474001132
80,0.0038488131918141127,0.002430283749816548
90,0.0038489889046150784,0.007410910951829856
100,0.0038493403302170097,0.007455845569533474
