m,mehrotra,qpoases,cputime
2,1.0400723480000003,0.6236750360000001,0.6150937058000001
3,0.9326828159999999,0.662896496,0.6545028724
4,0.8674070779999999,1.174821436,1.1657299287999996
5,0.7955604,0.9463364379999996,0.9377432749999998
6,1.740224684,0.895324214,0.8859233773999999
7,1.813497132,1.2562735939999998,1.2465786866000002
8,1.8565146659999998,1.571350898,1.5612778814000001
9,1.964026958,2.01724484,2.007069121
10,2.016969764,2.482688942,2.4717850458000004
11,2.05155284,2.850995012,2.8390479202
