T,mehrotra,qpoases,cputime
10,0.002500183278982301,0.02374432004748943,0.023351944538298832
20,0.01789604999808168,119.4757174798997,119.24584797526582
30,0.04818391963574854,559.0700167964409,558.3835924718879
40,0.09057141166808823,1826.9842998651059,1824.6714608593306
50,0.1430784580856777,4334.1278866420935,4328.875197612194
60,0.19942265834658868,9169.658642915674,9158.841149034573
70,0.268160416458659,16305.05349397332,16286.864691055218
80,0.35082427980636727,35384.78483374044,35352.226119936946
90,0.44399640314854,65160.606441609336,65106.97908092768
100,0.5465411523798135,186407.789982179,186301.07134529174
